…
-   **OMR20** is the area. Call realestateDK::table\_vars("BM010") to see all available parameter settings.

-   **PRIS20** is the prices of completed transactions. Call realestateDK::table\_vars("BM010") to see all available parameter settings.

-   **Tid** is the time. Call realestateDK::table\_vars("BM010") to see all available parameter settings.

-   **lang** whether to return the data in english or danish.

They state that we can call `table_vars("BM010")` to see all available parameter settings. Lets try that:

``` r
table_vars("BM010")
#> Metadata collected succesfully
#> # A tibble: 223 x 4
#>    param setting                  description  type
#>    <chr>   <chr>                        <chr> <chr>
#>  1 OMR20      00                  All Denmark  area
#>  2 OMR20     084               Capital region  area
#>  3 OMR20      01    Subregion Copenhagen City  area
#>  4 OMR20     101                   Copenhagen  area
#>  5 OMR20     147                Frederiksberg  area
#>  6 OMR20     155                       Dragør  area
#>  7 OMR20     185                       Tårnby  area
#>  8 OMR20      02 Subregion Copenhagen suburbs  area
#>  9 OMR20     165                  Albertslund  area
#> 10 OMR20     151                     Ballerup  area
#> # ... with 213 more rows
```
…
